{
    "editor": [
        {
            "icon": "",
            "key": "general",
            "header": "General",
            "disabled": false,
            "fields": [
                {
                    "key": "coin-padding",
                    "header": "Coin Padding",
                    "type": "text"
                },
                {
                    "key": "game-title",
                    "header": "Game Title",
                    "type": "text"
                }
            ]
        },
        {
            "icon": "",
            "key": "images",
            "header": "Images",
            "disabled": false,
            "fields": [
                {
                    "key": "coin-a",
                    "header": "Coin A",
                    "type": "image"
                },
                {
                    "key": "coin-b",
                    "header": "Coin B",
                    "type": "image"
                },
                {
                    "key": "coin-c",
                    "header": "Coin C",
                    "type": "image"
                },
                {
                    "key": "coin-d",
                    "header": "Coin D",
                    "type": "image"
                },
                {
                    "key": "coin-e",
                    "header": "Coin e",
                    "type": "image"
                },
                {
                    "key": "coin-f",
                    "header": "Coin f",
                    "type": "image"
                }
            ]
        }
    ],
    "config": {
        "general": {
            "coin-padding": "3px",
            "game-title": "Pioneer Match"
        },
        "images": {
            "coin-a": "https://d1zhjck9imo0be.cloudfront.net/assets/views/about/daniel@2x-64ee8e25ce7f5e080a4a933bad7bbb00e3124f204f37b9f4fb232271d30d0685.jpg",
            "coin-b": "https://d1zhjck9imo0be.cloudfront.net/assets/views/about/rishi@2x-34398661ed70cb96183d0e644b1e1ad2f740ded81a9fd50eae39edca81f80e15.jpg",
            "coin-c": "https://d1zhjck9imo0be.cloudfront.net/assets/views/about/jackson@2x-b8a16cc619c4c96366fd524bd195a29a3064abb9dba186f243aee4d59a06d70c.jpg",
            "coin-d": "https://miro.medium.com/proxy/1*xUwh4LT0F450udGz1pgpvA.jpeg",
            "coin-e": "https://d1zhjck9imo0be.cloudfront.net/assets/views/landing/experts/marc-andreessen@2x-bbe17126422a5df77774db64d9170e2d382dc8fad6b377c819543aa14551dd30.jpg",
            "coin-f": "https://d1zhjck9imo0be.cloudfront.net/assets/views/landing/experts/balaji-srinivasan@2x-8f9c51cb2caf5484892302188f8352596e66b324e882de3370c54a06b34b1a12.jpg"
        }
    }
}